{
  "categories": {
      "href": "https://api.spotify.com/v1/browse/categories?country=KW&offset=10&limit=30",
      "items": [
          {
              "href": "https://api.spotify.com/v1/browse/categories/0JQ5DAqbMKFzHmL4tf05da",
              "icons": [
                  {
                      "height": 274,
                      "url": "https://t.scdn.co/media/original/mood-274x274_976986a31ac8c49794cbdc7246fd5ad7_274x274.jpg",
                      "width": 274
                  }
              ],
              "id": "0JQ5DAqbMKFzHmL4tf05da",
              "name": "Mood"
          },
          {
              "href": "https://api.spotify.com/v1/browse/categories/0JQ5DAqbMKFFzDl7qN9Apr",
              "icons": [
                  {
                      "height": 274,
                      "url": "https://t.scdn.co/media/derived/chill-274x274_4c46374f007813dd10b37e8d8fd35b4b_0_0_274_274.jpg",
                      "width": 274
                  }
              ],
              "id": "0JQ5DAqbMKFFzDl7qN9Apr",
              "name": "Chill"
          },
          {
              "href": "https://api.spotify.com/v1/browse/categories/0JQ5DAqbMKFHOzuVTgTizF",
              "icons": [
                  {
                      "height": 274,
                      "url": "https://t.scdn.co/media/derived/edm-274x274_0ef612604200a9c14995432994455a6d_0_0_274_274.jpg",
                      "width": 274
                  }
              ],
              "id": "0JQ5DAqbMKFHOzuVTgTizF",
              "name": "Dance/Electronic"
          },
          {
              "href": "https://api.spotify.com/v1/browse/categories/0JQ5DAqbMKFCuoRTxhYWow",
              "icons": [
                  {
                      "height": 274,
                      "url": "https://t.scdn.co/media/derived/sleep-274x274_0d4f836af8fab7bf31526968073e671c_0_0_274_274.jpg",
                      "width": 274
                  }
              ],
              "id": "0JQ5DAqbMKFCuoRTxhYWow",
              "name": "Sleep"
          },
          {
              "href": "https://api.spotify.com/v1/browse/categories/0JQ5DAqbMKFCbimwdOYlsl",
              "icons": [
                  {
                      "height": 274,
                      "url": "https://t.scdn.co/media/original/genre-images-square-274x274_5e50d72b846a198fcd2ca9b3aef5f0c8_274x274.jpg",
                      "width": 274
                  }
              ],
              "id": "0JQ5DAqbMKFCbimwdOYlsl",
              "name": "Focus"
          },
          {
              "href": "https://api.spotify.com/v1/browse/categories/0JQ5DAqbMKFx0uLQR2okcc",
              "icons": [
                  {
                      "height": null,
                      "url": "https://t.scdn.co/images/04da469dd7be4dab96659aa1fa9f0ac9.jpeg",
                      "width": null
                  }
              ],
              "id": "0JQ5DAqbMKFx0uLQR2okcc",
              "name": "At Home"
          },
          {
              "href": "https://api.spotify.com/v1/browse/categories/0JQ5DAqbMKFIVNxQgRNSg0",
              "icons": [
                  {
                      "height": null,
                      "url": "https://t.scdn.co/images/b611cf5145764c64b80e91ccd5f357c8",
                      "width": null
                  }
              ],
              "id": "0JQ5DAqbMKFIVNxQgRNSg0",
              "name": "Decades"
          },
          {
              "href": "https://api.spotify.com/v1/browse/categories/0JQ5DAqbMKFAUsdyVjCQuL",
              "icons": [
                  {
                      "height": 274,
                      "url": "https://t.scdn.co/media/derived/romance-274x274_8100794c94847b6d27858bed6fa4d91b_0_0_274_274.jpg",
                      "width": 274
                  }
              ],
              "id": "0JQ5DAqbMKFAUsdyVjCQuL",
              "name": "Romance"
          },
          {
              "href": "https://api.spotify.com/v1/browse/categories/0JQ5DAqbMKFPrEiAOxgac3",
              "icons": [
                  {
                      "height": 274,
                      "url": "https://t.scdn.co/media/derived/classical-274x274_abf78251ff3d90d2ceaf029253ca7cb4_0_0_274_274.jpg",
                      "width": 274
                  }
              ],
              "id": "0JQ5DAqbMKFPrEiAOxgac3",
              "name": "Classical"
          },
          {
              "href": "https://api.spotify.com/v1/browse/categories/0JQ5DAqbMKFxXaXKP7zcDp",
              "icons": [
                  {
                      "height": null,
                      "url": "https://t.scdn.co/images/26a60378-a374-4cd7-b894-28efa5e154cb.jpg",
                      "width": null
                  }
              ],
              "id": "0JQ5DAqbMKFxXaXKP7zcDp",
              "name": "Latin"
          },
          {
              "href": "https://api.spotify.com/v1/browse/categories/0JQ5DAqbMKFziKOShCi009",
              "icons": [
                  {
                      "height": null,
                      "url": "https://t.scdn.co/images/54841f7d6a774ef096477c99c23f0cf1.jpeg",
                      "width": null
                  }
              ],
              "id": "0JQ5DAqbMKFziKOShCi009",
              "name": "Anime"
          },
          {
              "href": "https://api.spotify.com/v1/browse/categories/0JQ5DAqbMKFA6SOHvT3gck",
              "icons": [
                  {
                      "height": null,
                      "url": "https://t.scdn.co/images/fada056dcfd54cd28faf80d62b7059c6.jpeg",
                      "width": null
                  }
              ],
              "id": "0JQ5DAqbMKFA6SOHvT3gck",
              "name": "Party"
          },
          {
              "href": "https://api.spotify.com/v1/browse/categories/0JQ5DAqbMKFRY5ok2pxXJ0",
              "icons": [
                  {
                      "height": 274,
                      "url": "https://t.scdn.co/media/original/dinner_1b6506abba0ba52c54e6d695c8571078_274x274.jpg",
                      "width": 274
                  }
              ],
              "id": "0JQ5DAqbMKFRY5ok2pxXJ0",
              "name": "Cooking & Dining"
          },
          {
              "href": "https://api.spotify.com/v1/browse/categories/opm",
              "icons": [
                  {
                      "height": null,
                      "url": "https://t.scdn.co/images/112e9e66f9ee404aa7e93f2ee193afe5.jpeg",
                      "width": null
                  }
              ],
              "id": "opm",
              "name": "OPM"
          },
          {
              "href": "https://api.spotify.com/v1/browse/categories/0JQ5DAqbMKFQVdc2eQoH2s",
              "icons": [
                  {
                      "height": null,
                      "url": "https://t.scdn.co/images/878e1eda3d084a4584465626a8f7dd26.jpeg",
                      "width": null
                  }
              ],
              "id": "0JQ5DAqbMKFQVdc2eQoH2s",
              "name": "Desi"
          },
          {
              "href": "https://api.spotify.com/v1/browse/categories/0JQ5DAqbMKFNQ0fGp4byGU",
              "icons": [
                  {
                      "height": null,
                      "url": "https://t.scdn.co/images/b505b01bbe0e490cbe43b07f16212892.jpeg",
                      "width": null
                  }
              ],
              "id": "0JQ5DAqbMKFNQ0fGp4byGU",
              "name": "Afro"
          },
          {
              "href": "https://api.spotify.com/v1/browse/categories/0JQ5DAqbMKFLb2EqgLtpjC",
              "icons": [
                  {
                      "height": null,
                      "url": "https://t.scdn.co/images/3710b68657574bc79df14bd74629e5ac",
                      "width": null
                  }
              ],
              "id": "0JQ5DAqbMKFLb2EqgLtpjC",
              "name": "Wellness"
          },
          {
              "href": "https://api.spotify.com/v1/browse/categories/0JQ5DAqbMKFRKBHIxJ5hMm",
              "icons": [
                  {
                      "height": null,
                      "url": "https://t.scdn.co/images/b4182906bf244b4994805084c057e9ee.jpeg",
                      "width": null
                  }
              ],
              "id": "0JQ5DAqbMKFRKBHIxJ5hMm",
              "name": "Tastemakers"
          },
          {
              "href": "https://api.spotify.com/v1/browse/categories/0JQ5DAqbMKFDXXwE9BDJAr",
              "icons": [
                  {
                      "height": 274,
                      "url": "https://t.scdn.co/media/derived/rock_9ce79e0a4ef901bbd10494f5b855d3cc_0_0_274_274.jpg",
                      "width": 274
                  }
              ],
              "id": "0JQ5DAqbMKFDXXwE9BDJAr",
              "name": "Rock"
          },
          {
              "href": "https://api.spotify.com/v1/browse/categories/0JQ5DAqbMKFAJ5xb0fwo9m",
              "icons": [
                  {
                      "height": null,
                      "url": "https://t.scdn.co/images/568f37f1cab54136939d63bd1f59d40c",
                      "width": null
                  }
              ],
              "id": "0JQ5DAqbMKFAJ5xb0fwo9m",
              "name": "Jazz"
          },
          {
              "href": "https://api.spotify.com/v1/browse/categories/0JQ5DAqbMKFObNLOHydSW8",
              "icons": [
                  {
                      "height": null,
                      "url": "https://t.scdn.co/images/495fadcefe234607b14b2db3381f3f5d.jpeg",
                      "width": null
                  }
              ],
              "id": "0JQ5DAqbMKFObNLOHydSW8",
              "name": "Caribbean"
          },
          {
              "href": "https://api.spotify.com/v1/browse/categories/0JQ5DAqbMKFEZPnFQSFB1T",
              "icons": [
                  {
                      "height": 274,
                      "url": "https://t.scdn.co/media/derived/r-b-274x274_fd56efa72f4f63764b011b68121581d8_0_0_274_274.jpg",
                      "width": 274
                  }
              ],
              "id": "0JQ5DAqbMKFEZPnFQSFB1T",
              "name": "R&B"
          },
          {
              "href": "https://api.spotify.com/v1/browse/categories/0JQ5DAqbMKFCWjUTdzaG0e",
              "icons": [
                  {
                      "height": null,
                      "url": "https://t.scdn.co/images/fe06caf056474bc58862591cd60b57fc.jpeg",
                      "width": null
                  }
              ],
              "id": "0JQ5DAqbMKFCWjUTdzaG0e",
              "name": "Indie"
          },
          {
              "href": "https://api.spotify.com/v1/browse/categories/0JQ5DAqbMKFIpEuaCnimBj",
              "icons": [
                  {
                      "height": 274,
                      "url": "https://t.scdn.co/media/derived/soul-274x274_266bc900b35dda8956380cffc73a4d8c_0_0_274_274.jpg",
                      "width": 274
                  }
              ],
              "id": "0JQ5DAqbMKFIpEuaCnimBj",
              "name": "Soul"
          },
          {
              "href": "https://api.spotify.com/v1/browse/categories/0JQ5DAqbMKFDkd668ypn6O",
              "icons": [
                  {
                      "height": 274,
                      "url": "https://t.scdn.co/media/original/metal_27c921443fd0a5ba95b1b2c2ae654b2b_274x274.jpg",
                      "width": 274
                  }
              ],
              "id": "0JQ5DAqbMKFDkd668ypn6O",
              "name": "Metal"
          },
          {
              "href": "https://api.spotify.com/v1/browse/categories/0JQ5DAqbMKFFoimhOqWzLB",
              "icons": [
                  {
                      "height": null,
                      "url": "https://t.scdn.co/images/664bb84f7a774e1eadb7c227aed98f3c",
                      "width": null
                  }
              ],
              "id": "0JQ5DAqbMKFFoimhOqWzLB",
              "name": "Kids & Family"
          },
          {
              "href": "https://api.spotify.com/v1/browse/categories/0JQ5DAqbMKFQiK2EHwyjcU",
              "icons": [
                  {
                      "height": null,
                      "url": "https://t.scdn.co/images/6fe5cd3ebc8c4db7bb8013152b153505",
                      "width": null
                  }
              ],
              "id": "0JQ5DAqbMKFQiK2EHwyjcU",
              "name": "Blues"
          },
          {
              "href": "https://api.spotify.com/v1/browse/categories/funk",
              "icons": [
                  {
                      "height": null,
                      "url": "https://t.scdn.co/images/f4f0987fcab446fcaa7173acb5e25701.jpeg",
                      "width": null
                  }
              ],
              "id": "funk",
              "name": "Funk"
          },
          {
              "href": "https://api.spotify.com/v1/browse/categories/0JQ5DAqbMKFAjfauKLOZiv",
              "icons": [
                  {
                      "height": 274,
                      "url": "https://t.scdn.co/media/derived/punk-274x274_f3f1528ea7bbb60a625da13e3315a40b_0_0_274_274.jpg",
                      "width": 274
                  }
              ],
              "id": "0JQ5DAqbMKFAjfauKLOZiv",
              "name": "Punk"
          },
          {
              "href": "https://api.spotify.com/v1/browse/categories/0JQ5DAqbMKFKLfwjuJMoNC",
              "icons": [
                  {
                      "height": null,
                      "url": "https://t.scdn.co/images/a2e0ebe2ebed4566ba1d8236b869241f.jpeg",
                      "width": null
                  }
              ],
              "id": "0JQ5DAqbMKFKLfwjuJMoNC",
              "name": "Country"
          }
      ],
      "limit": 30,
      "next": "https://api.spotify.com/v1/browse/categories?country=KW&offset=40&limit=30",
      "offset": 10,
      "previous": "https://api.spotify.com/v1/browse/categories?country=KW&offset=0&limit=30",
      "total": 45
  }
}